<?xml version="1.0" encoding="UTF-8" standalone="no"?>
<svg width="344px" height="83px" viewBox="0 0 344 83" version="1.1" xmlns="http://www.w3.org/2000/svg" xmlns:xlink="http://www.w3.org/1999/xlink" xmlns:sketch="http://www.bohemiancoding.com/sketch/ns">
    <!-- Generator: Sketch 3.3 (11970) - http://www.bohemiancoding.com/sketch -->
    <title>first-text</title>
    <desc>Created with Sketch.</desc>
    <defs>
        <filter x="-50%" y="-50%" width="200%" height="200%" filterUnits="objectBoundingBox" id="filter-1">
            <feOffset dx="0" dy="1" in="SourceAlpha" result="shadowOffsetOuter1"></feOffset>
            <feGaussianBlur stdDeviation="2" in="shadowOffsetOuter1" result="shadowBlurOuter1"></feGaussianBlur>
            <feColorMatrix values="0 0 0 0 0   0 0 0 0 0   0 0 0 0 0  0 0 0 0.111792346 0" in="shadowBlurOuter1" type="matrix" result="shadowMatrixOuter1"></feColorMatrix>
            <feMerge>
                <feMergeNode in="shadowMatrixOuter1"></feMergeNode>
                <feMergeNode in="SourceGraphic"></feMergeNode>
            </feMerge>
        </filter>
    </defs>
    <g id="Page-1" stroke="none" stroke-width="1" fill="none" fill-rule="evenodd" sketch:type="MSPage">
        <g id="Functions-Copy" sketch:type="MSArtboardGroup" transform="translate(-394.000000, -1761.000000)">
            <g id="first-text" sketch:type="MSLayerGroup" transform="translate(398.000000, 1764.000000)">
                <rect id="Rectangle-557" stroke="#D9D9D9" fill="#FFFFFF" filter="url(#filter-1)" sketch:type="MSShapeGroup" x="0" y="0" width="336" height="75" rx="3"></rect>
                <g id="SMS-icon" transform="translate(9.000000, 7.000000)" sketch:type="MSShapeGroup">
                    <rect id="Rectangle-557-Copy" fill="#7ED321" x="0" y="0" width="60" height="60" rx="8"></rect>
                    <ellipse id="Oval-224" fill="#FFFFFF" cx="30.5" cy="30" rx="16.5" ry="14"></ellipse>
                    <path d="M17.5198149,43.8697245 C17.8111253,42.7044831 19.3406698,39.9030357 19.3406698,39.9030357 C19.3406698,39.9030357 19.4020295,42.1817858 19.6752351,43.2746082 C19.9020295,44.1817858 20.8406698,45.9030357 20.8406698,45.9030357 L17.0372211,46.3227029 C17.0372211,46.3227029 17.3111253,44.7044831 17.5198149,43.8697245 Z" id="Triangle-1" fill="#FFFFFF" transform="translate(18.938945, 43.112869) rotate(222.000000) translate(-18.938945, -43.112869) "></path>
                </g>
                <path d="M88.8,34.192 C91.664,34.192 92.928,32.656 92.928,30.88 C92.928,26.912 86.72,28.144 86.72,26.144 C86.72,25.36 87.424,24.816 88.512,24.816 C89.632,24.816 90.768,25.2 91.616,26.048 L92.672,24.656 C91.696,23.696 90.336,23.152 88.688,23.152 C86.336,23.152 84.8,24.512 84.8,26.288 C84.8,30.208 91.008,28.816 91.008,31.056 C91.008,31.776 90.416,32.528 88.88,32.528 C87.392,32.528 86.224,31.824 85.504,31.04 L84.448,32.496 C85.408,33.488 86.832,34.192 88.8,34.192 L88.8,34.192 Z M105.76,34 L105.76,28.416 C105.76,26.848 104.944,26.08 103.536,26.08 C102.368,26.08 101.344,26.8 100.912,27.488 C100.656,26.656 99.952,26.08 98.8,26.08 C97.616,26.08 96.608,26.848 96.272,27.312 L96.272,26.272 L94.592,26.272 L94.592,34 L96.272,34 L96.272,28.592 C96.624,28.096 97.312,27.568 98.064,27.568 C98.976,27.568 99.328,28.128 99.328,28.96 L99.328,34 L101.008,34 L101.008,28.592 C101.344,28.08 102.048,27.568 102.8,27.568 C103.712,27.568 104.08,28.128 104.08,28.96 L104.08,34 L105.76,34 Z M114.352,34 L114.352,28.864 C114.352,26.8 112.848,26.08 111.12,26.08 C109.888,26.08 108.768,26.464 107.872,27.328 L108.576,28.496 C109.232,27.824 110,27.504 110.864,27.504 C111.92,27.504 112.672,28.048 112.672,28.944 L112.672,30.096 C112.096,29.44 111.216,29.104 110.16,29.104 C108.896,29.104 107.488,29.84 107.488,31.632 C107.488,33.328 108.912,34.192 110.16,34.192 C111.184,34.192 112.096,33.824 112.672,33.152 L112.672,34 L114.352,34 Z M110.832,33.04 C109.888,33.04 109.168,32.496 109.168,31.648 C109.168,30.816 109.888,30.256 110.832,30.256 C111.552,30.256 112.272,30.528 112.672,31.056 L112.672,32.24 C112.272,32.768 111.552,33.04 110.832,33.04 L110.832,33.04 Z M118.208,34 L118.208,28.736 C118.544,28.176 119.488,27.696 120.208,27.696 C120.416,27.696 120.576,27.712 120.72,27.744 L120.72,26.08 C119.728,26.08 118.8,26.656 118.208,27.392 L118.208,26.272 L116.528,26.272 L116.528,34 L118.208,34 Z M124.416,34.192 C125.184,34.192 125.68,33.968 125.984,33.696 L125.584,32.416 C125.456,32.56 125.168,32.704 124.848,32.704 C124.368,32.704 124.112,32.304 124.112,31.776 L124.112,27.728 L125.68,27.728 L125.68,26.272 L124.112,26.272 L124.112,24.16 L122.432,24.16 L122.432,26.272 L121.152,26.272 L121.152,27.728 L122.432,27.728 L122.432,32.192 C122.432,33.488 123.104,34.192 124.416,34.192 L124.416,34.192 Z M131.344,34.192 C133.344,34.192 134.768,32.672 134.768,30.128 C134.768,27.584 133.344,26.08 131.344,26.08 C130.336,26.08 129.44,26.56 128.864,27.328 L128.864,26.272 L127.184,26.272 L127.184,36.944 L128.864,36.944 L128.864,32.928 C129.504,33.744 130.368,34.192 131.344,34.192 L131.344,34.192 Z M130.848,32.704 C130.064,32.704 129.232,32.224 128.864,31.648 L128.864,28.592 C129.248,28.016 130.064,27.568 130.848,27.568 C132.176,27.568 133.04,28.624 133.04,30.128 C133.04,31.632 132.176,32.704 130.848,32.704 L130.848,32.704 Z M138.128,34 L138.128,23.328 L136.448,23.328 L136.448,34 L138.128,34 Z M146.72,34 L146.72,28.864 C146.72,26.8 145.216,26.08 143.488,26.08 C142.256,26.08 141.136,26.464 140.24,27.328 L140.944,28.496 C141.6,27.824 142.368,27.504 143.232,27.504 C144.288,27.504 145.04,28.048 145.04,28.944 L145.04,30.096 C144.464,29.44 143.584,29.104 142.528,29.104 C141.264,29.104 139.856,29.84 139.856,31.632 C139.856,33.328 141.28,34.192 142.528,34.192 C143.552,34.192 144.464,33.824 145.04,33.152 L145.04,34 L146.72,34 Z M143.2,33.04 C142.256,33.04 141.536,32.496 141.536,31.648 C141.536,30.816 142.256,30.256 143.2,30.256 C143.92,30.256 144.64,30.528 145.04,31.056 L145.04,32.24 C144.64,32.768 143.92,33.04 143.2,33.04 L143.2,33.04 Z M155.808,34 L155.808,28.56 C155.808,26.976 154.976,26.08 153.312,26.08 C152.096,26.08 151.088,26.704 150.576,27.312 L150.576,26.272 L148.896,26.272 L148.896,34 L150.576,34 L150.576,28.592 C150.976,28.08 151.712,27.568 152.56,27.568 C153.504,27.568 154.128,27.952 154.128,29.168 L154.128,34 L155.808,34 Z M165.824,34.192 C168.688,34.192 169.952,32.656 169.952,30.88 C169.952,26.912 163.744,28.144 163.744,26.144 C163.744,25.36 164.448,24.816 165.536,24.816 C166.656,24.816 167.792,25.2 168.64,26.048 L169.696,24.656 C168.72,23.696 167.36,23.152 165.712,23.152 C163.36,23.152 161.824,24.512 161.824,26.288 C161.824,30.208 168.032,28.816 168.032,31.056 C168.032,31.776 167.44,32.528 165.904,32.528 C164.416,32.528 163.248,31.824 162.528,31.04 L161.472,32.496 C162.432,33.488 163.856,34.192 165.824,34.192 L165.824,34.192 Z M182.752,34 L182.752,23.328 L180.112,23.328 L177.216,30.656 L174.304,23.328 L171.664,23.328 L171.664,34 L173.536,34 L173.536,25.76 L176.816,34 L177.616,34 L180.88,25.76 L180.88,34 L182.752,34 Z M188.688,34.192 C191.552,34.192 192.816,32.656 192.816,30.88 C192.816,26.912 186.608,28.144 186.608,26.144 C186.608,25.36 187.312,24.816 188.4,24.816 C189.52,24.816 190.656,25.2 191.504,26.048 L192.56,24.656 C191.584,23.696 190.224,23.152 188.576,23.152 C186.224,23.152 184.688,24.512 184.688,26.288 C184.688,30.208 190.896,28.816 190.896,31.056 C190.896,31.776 190.304,32.528 188.768,32.528 C187.28,32.528 186.112,31.824 185.392,31.04 L184.336,32.496 C185.296,33.488 186.72,34.192 188.688,34.192 L188.688,34.192 Z" id="Smartplan-SMS" fill="#4A4A4A" sketch:type="MSShapeGroup"></path>
                <path d="M88.284,54 C91.196,54 93.072,51.998 93.072,49.338 C93.072,46.692 91.196,44.662 88.284,44.662 L85.092,44.662 L85.092,54 L88.284,54 Z M88.284,52.964 L86.254,52.964 L86.254,45.698 L88.284,45.698 C90.594,45.698 91.868,47.322 91.868,49.338 C91.868,51.34 90.552,52.964 88.284,52.964 L88.284,52.964 Z M100.464,54 L100.464,47.238 L99.414,47.238 L99.414,52.208 C99.022,52.754 98.238,53.23 97.426,53.23 C96.502,53.23 95.9,52.88 95.9,51.69 L95.9,47.238 L94.85,47.238 L94.85,52.012 C94.85,53.468 95.592,54.168 97.006,54.168 C98.014,54.168 98.896,53.636 99.414,53.048 L99.414,54 L100.464,54 Z M111.818,54 L111.818,49.226 C111.818,47.756 111.076,47.07 109.662,47.07 C108.64,47.07 107.716,47.644 107.254,48.218 L107.254,44.662 L106.204,44.662 L106.204,54 L107.254,54 L107.254,49.058 C107.646,48.512 108.43,48.008 109.242,48.008 C110.166,48.008 110.768,48.344 110.768,49.548 L110.768,54 L111.818,54 Z M119.196,54 L119.196,49.352 C119.196,47.714 118.02,47.07 116.578,47.07 C115.472,47.07 114.604,47.434 113.876,48.19 L114.366,48.918 C114.968,48.26 115.626,47.98 116.438,47.98 C117.418,47.98 118.146,48.498 118.146,49.394 L118.146,50.612 C117.6,49.996 116.83,49.702 115.906,49.702 C114.758,49.702 113.554,50.402 113.554,51.928 C113.554,53.398 114.772,54.168 115.906,54.168 C116.816,54.168 117.6,53.846 118.146,53.23 L118.146,54 L119.196,54 Z M116.298,53.412 C115.304,53.412 114.618,52.796 114.618,51.928 C114.618,51.074 115.304,50.458 116.298,50.458 C117.026,50.458 117.74,50.738 118.146,51.284 L118.146,52.572 C117.74,53.132 117.026,53.412 116.298,53.412 L116.298,53.412 Z M122.36,54 L122.36,49.212 C122.668,48.666 123.55,48.134 124.208,48.134 C124.362,48.134 124.488,48.148 124.614,48.162 L124.614,47.084 C123.69,47.084 122.906,47.616 122.36,48.316 L122.36,47.238 L121.31,47.238 L121.31,54 L122.36,54 Z M130.9,54 L130.9,48.162 L132.272,48.162 L132.272,47.238 L130.9,47.238 L130.9,46.72 C130.9,45.852 131.278,45.39 131.978,45.39 C132.314,45.39 132.58,45.516 132.804,45.712 L133.238,45.04 C132.818,44.648 132.356,44.522 131.81,44.522 C130.62,44.522 129.85,45.334 129.85,46.72 L129.85,47.238 L128.73,47.238 L128.73,48.162 L129.85,48.162 L129.85,54 L130.9,54 Z M138.81,54 L138.81,49.352 C138.81,47.714 137.634,47.07 136.192,47.07 C135.086,47.07 134.218,47.434 133.49,48.19 L133.98,48.918 C134.582,48.26 135.24,47.98 136.052,47.98 C137.032,47.98 137.76,48.498 137.76,49.394 L137.76,50.612 C137.214,49.996 136.444,49.702 135.52,49.702 C134.372,49.702 133.168,50.402 133.168,51.928 C133.168,53.398 134.386,54.168 135.52,54.168 C136.43,54.168 137.214,53.846 137.76,53.23 L137.76,54 L138.81,54 Z M135.912,53.412 C134.918,53.412 134.232,52.796 134.232,51.928 C134.232,51.074 134.918,50.458 135.912,50.458 C136.64,50.458 137.354,50.738 137.76,51.284 L137.76,52.572 C137.354,53.132 136.64,53.412 135.912,53.412 L135.912,53.412 Z M136.206,46.342 C136.962,46.342 137.564,45.712 137.564,44.956 C137.564,44.2 136.962,43.57 136.206,43.57 C135.45,43.57 134.82,44.2 134.82,44.956 C134.82,45.712 135.45,46.342 136.206,46.342 L136.206,46.342 Z M136.206,45.782 C135.744,45.782 135.38,45.404 135.38,44.956 C135.38,44.508 135.744,44.13 136.206,44.13 C136.654,44.13 137.018,44.508 137.018,44.956 C137.018,45.404 136.654,45.782 136.206,45.782 L136.206,45.782 Z M143.99,54.168 C145.082,54.168 145.992,53.79 146.678,53.118 L146.174,52.432 C145.628,52.992 144.858,53.3 144.074,53.3 C142.618,53.3 141.736,52.236 141.652,50.962 L147.112,50.962 L147.112,50.696 C147.112,48.666 145.908,47.07 143.864,47.07 C141.932,47.07 140.532,48.652 140.532,50.612 C140.532,52.726 141.974,54.168 143.99,54.168 L143.99,54.168 Z M146.076,50.178 L141.638,50.178 C141.694,49.156 142.408,47.938 143.85,47.938 C145.39,47.938 146.062,49.184 146.076,50.178 L146.076,50.178 Z M150.528,54.168 C151.13,54.168 151.508,53.986 151.774,53.734 L151.466,52.936 C151.326,53.09 151.06,53.23 150.752,53.23 C150.304,53.23 150.08,52.866 150.08,52.362 L150.08,48.162 L151.452,48.162 L151.452,47.238 L150.08,47.238 L150.08,45.39 L149.016,45.39 L149.016,47.238 L147.896,47.238 L147.896,48.162 L149.016,48.162 L149.016,52.586 C149.016,53.594 149.52,54.168 150.528,54.168 L150.528,54.168 Z M159.614,54.168 C160.706,54.168 161.616,53.79 162.302,53.118 L161.798,52.432 C161.252,52.992 160.482,53.3 159.698,53.3 C158.242,53.3 157.36,52.236 157.276,50.962 L162.736,50.962 L162.736,50.696 C162.736,48.666 161.532,47.07 159.488,47.07 C157.556,47.07 156.156,48.652 156.156,50.612 C156.156,52.726 157.598,54.168 159.614,54.168 L159.614,54.168 Z M161.7,50.178 L157.262,50.178 C157.318,49.156 158.032,47.938 159.474,47.938 C161.014,47.938 161.686,49.184 161.7,50.178 L161.7,50.178 Z M170.044,54 L170.044,49.254 C170.044,47.784 169.302,47.07 167.902,47.07 C166.88,47.07 165.956,47.644 165.48,48.218 L165.48,47.238 L164.43,47.238 L164.43,54 L165.48,54 L165.48,49.058 C165.886,48.512 166.656,48.008 167.482,48.008 C168.392,48.008 169.008,48.372 169.008,49.576 L169.008,54 L170.044,54 Z M181.398,54 L181.398,49.254 C181.398,47.784 180.656,47.07 179.256,47.07 C178.234,47.07 177.31,47.644 176.834,48.218 L176.834,47.238 L175.784,47.238 L175.784,54 L176.834,54 L176.834,49.058 C177.24,48.512 178.01,48.008 178.836,48.008 C179.746,48.008 180.362,48.372 180.362,49.576 L180.362,54 L181.398,54 Z M183.148,56.646 C183.33,56.702 183.68,56.744 183.904,56.744 C184.8,56.73 185.486,56.352 185.892,55.372 L189.28,47.238 L188.146,47.238 L185.892,52.782 L183.652,47.238 L182.504,47.238 L185.332,54.07 L184.884,55.092 C184.646,55.652 184.338,55.806 183.876,55.806 C183.708,55.806 183.456,55.764 183.302,55.694 L183.148,56.646 Z M196.952,54 L199.766,47.238 L198.632,47.238 L196.378,52.782 L194.138,47.238 L192.99,47.238 L195.804,54 L196.952,54 Z M206.136,54 L206.136,49.352 C206.136,47.714 204.96,47.07 203.518,47.07 C202.412,47.07 201.544,47.434 200.816,48.19 L201.306,48.918 C201.908,48.26 202.566,47.98 203.378,47.98 C204.358,47.98 205.086,48.498 205.086,49.394 L205.086,50.612 C204.54,49.996 203.77,49.702 202.846,49.702 C201.698,49.702 200.494,50.402 200.494,51.928 C200.494,53.398 201.712,54.168 202.846,54.168 C203.756,54.168 204.54,53.846 205.086,53.23 L205.086,54 L206.136,54 Z M203.238,53.412 C202.244,53.412 201.558,52.796 201.558,51.928 C201.558,51.074 202.244,50.458 203.238,50.458 C203.966,50.458 204.68,50.738 205.086,51.284 L205.086,52.572 C204.68,53.132 203.966,53.412 203.238,53.412 L203.238,53.412 Z M210.966,56.744 C212.618,56.744 214.2,56.044 214.2,53.902 L214.2,47.238 L213.15,47.238 L213.15,48.26 C212.604,47.518 211.778,47.07 210.868,47.07 C209.09,47.07 207.858,48.414 207.858,50.584 C207.858,52.768 209.104,54.084 210.868,54.084 C211.82,54.084 212.646,53.566 213.15,52.88 L213.15,53.902 C213.15,55.33 212.086,55.876 210.966,55.876 C210,55.876 209.328,55.624 208.768,54.966 L208.236,55.722 C209.048,56.52 209.832,56.744 210.966,56.744 L210.966,56.744 Z M211.134,53.146 C209.762,53.146 208.95,52.068 208.95,50.584 C208.95,49.086 209.762,48.008 211.134,48.008 C211.96,48.008 212.772,48.512 213.15,49.086 L213.15,52.054 C212.772,52.642 211.96,53.146 211.134,53.146 L211.134,53.146 Z M218.022,54.168 C218.624,54.168 219.002,53.986 219.268,53.734 L218.96,52.936 C218.82,53.09 218.554,53.23 218.246,53.23 C217.798,53.23 217.574,52.866 217.574,52.362 L217.574,48.162 L218.946,48.162 L218.946,47.238 L217.574,47.238 L217.574,45.39 L216.51,45.39 L216.51,47.238 L215.39,47.238 L215.39,48.162 L216.51,48.162 L216.51,52.586 C216.51,53.594 217.014,54.168 218.022,54.168 L218.022,54.168 Z M225.764,54.168 C226.366,54.168 226.744,53.986 227.01,53.734 L226.702,52.936 C226.562,53.09 226.296,53.23 225.988,53.23 C225.54,53.23 225.316,52.866 225.316,52.362 L225.316,48.162 L226.688,48.162 L226.688,47.238 L225.316,47.238 L225.316,45.39 L224.252,45.39 L224.252,47.238 L223.132,47.238 L223.132,48.162 L224.252,48.162 L224.252,52.586 C224.252,53.594 224.756,54.168 225.764,54.168 L225.764,54.168 Z M231.112,54.168 C233.17,54.168 234.458,52.572 234.458,50.612 C234.458,48.652 233.17,47.07 231.112,47.07 C229.054,47.07 227.766,48.652 227.766,50.612 C227.766,52.572 229.054,54.168 231.112,54.168 L231.112,54.168 Z M231.112,53.23 C229.67,53.23 228.872,51.998 228.872,50.612 C228.872,49.24 229.67,48.008 231.112,48.008 C232.554,48.008 233.352,49.24 233.352,50.612 C233.352,51.998 232.554,53.23 231.112,53.23 L231.112,53.23 Z M237.216,54 L237.216,49.212 C237.524,48.666 238.406,48.134 239.064,48.134 C239.218,48.134 239.344,48.148 239.47,48.162 L239.47,47.084 C238.546,47.084 237.762,47.616 237.216,48.316 L237.216,47.238 L236.166,47.238 L236.166,54 L237.216,54 Z M242.942,54.168 C244.678,54.168 245.588,53.258 245.588,52.124 C245.588,49.492 241.402,50.458 241.402,48.988 C241.402,48.386 241.976,47.924 242.9,47.924 C243.782,47.924 244.51,48.288 244.916,48.778 L245.406,48.05 C244.874,47.504 244.062,47.07 242.9,47.07 C241.29,47.07 240.394,47.952 240.394,49.016 C240.394,51.522 244.58,50.514 244.58,52.152 C244.58,52.824 244.006,53.314 242.97,53.314 C242.046,53.314 241.192,52.866 240.744,52.348 L240.212,53.104 C240.898,53.818 241.822,54.168 242.942,54.168 L242.942,54.168 Z M253.246,54 L253.246,44.662 L252.196,44.662 L252.196,48.26 C251.65,47.518 250.824,47.07 249.914,47.07 C248.15,47.07 246.904,48.456 246.904,50.626 C246.904,52.824 248.15,54.168 249.914,54.168 C250.866,54.168 251.692,53.678 252.196,52.992 L252.196,54 L253.246,54 Z M250.18,53.23 C248.808,53.23 247.996,52.124 247.996,50.626 C247.996,49.128 248.808,48.008 250.18,48.008 C251.006,48.008 251.832,48.512 252.196,49.1 L252.196,52.152 C251.832,52.74 251.006,53.23 250.18,53.23 L250.18,53.23 Z M260.624,54 L260.624,49.352 C260.624,47.714 259.448,47.07 258.006,47.07 C256.9,47.07 256.032,47.434 255.304,48.19 L255.794,48.918 C256.396,48.26 257.054,47.98 257.866,47.98 C258.846,47.98 259.574,48.498 259.574,49.394 L259.574,50.612 C259.028,49.996 258.258,49.702 257.334,49.702 C256.186,49.702 254.982,50.402 254.982,51.928 C254.982,53.398 256.2,54.168 257.334,54.168 C258.244,54.168 259.028,53.846 259.574,53.23 L259.574,54 L260.624,54 Z M257.726,53.412 C256.732,53.412 256.046,52.796 256.046,51.928 C256.046,51.074 256.732,50.458 257.726,50.458 C258.454,50.458 259.168,50.738 259.574,51.284 L259.574,52.572 C259.168,53.132 258.454,53.412 257.726,53.412 L257.726,53.412 Z M265.454,56.744 C267.106,56.744 268.688,56.044 268.688,53.902 L268.688,47.238 L267.638,47.238 L267.638,48.26 C267.092,47.518 266.266,47.07 265.356,47.07 C263.578,47.07 262.346,48.414 262.346,50.584 C262.346,52.768 263.592,54.084 265.356,54.084 C266.308,54.084 267.134,53.566 267.638,52.88 L267.638,53.902 C267.638,55.33 266.574,55.876 265.454,55.876 C264.488,55.876 263.816,55.624 263.256,54.966 L262.724,55.722 C263.536,56.52 264.32,56.744 265.454,56.744 L265.454,56.744 Z M265.622,53.146 C264.25,53.146 263.438,52.068 263.438,50.584 C263.438,49.086 264.25,48.008 265.622,48.008 C266.448,48.008 267.26,48.512 267.638,49.086 L267.638,52.054 C267.26,52.642 266.448,53.146 265.622,53.146 L265.622,53.146 Z M280.364,54 L280.364,44.662 L279.314,44.662 L279.314,48.26 C278.768,47.518 277.942,47.07 277.032,47.07 C275.268,47.07 274.022,48.456 274.022,50.626 C274.022,52.824 275.268,54.168 277.032,54.168 C277.984,54.168 278.81,53.678 279.314,52.992 L279.314,54 L280.364,54 Z M277.298,53.23 C275.926,53.23 275.114,52.124 275.114,50.626 C275.114,49.128 275.926,48.008 277.298,48.008 C278.124,48.008 278.95,48.512 279.314,49.1 L279.314,52.152 C278.95,52.74 278.124,53.23 277.298,53.23 L277.298,53.23 Z M283.024,54.14 C283.444,54.14 283.794,53.79 283.794,53.37 C283.794,52.95 283.444,52.6 283.024,52.6 C282.604,52.6 282.254,52.95 282.254,53.37 C282.254,53.79 282.604,54.14 283.024,54.14 L283.024,54.14 Z M295.442,54 L295.442,52.964 L290.864,52.964 C293.468,50.906 295.4,49.17 295.4,47.266 C295.4,45.404 293.818,44.522 292.264,44.522 C290.948,44.522 289.73,45.04 289.016,45.992 L289.73,46.734 C290.276,46.034 291.144,45.558 292.264,45.558 C293.23,45.558 294.224,46.062 294.224,47.266 C294.224,48.876 292.39,50.43 289.03,53.062 L289.03,54 L295.442,54 Z M300.23,54.168 C302.288,54.168 303.548,53.034 303.548,51.48 C303.548,49.968 302.232,49.254 301.392,49.17 C302.26,49.03 303.394,48.358 303.394,47 C303.394,45.432 302.036,44.522 300.244,44.522 C298.788,44.522 297.71,45.138 297.038,45.964 L297.682,46.692 C298.368,45.95 299.124,45.558 300.146,45.558 C301.28,45.558 302.232,46.118 302.232,47.154 C302.232,48.232 301.238,48.694 300.062,48.694 C299.684,48.694 299.25,48.694 299.096,48.68 L299.096,49.744 C299.236,49.73 299.67,49.73 300.062,49.73 C301.434,49.73 302.386,50.22 302.386,51.382 C302.386,52.446 301.56,53.132 300.202,53.132 C299.096,53.132 298.144,52.628 297.598,51.9 L296.912,52.628 C297.486,53.468 298.648,54.168 300.23,54.168 L300.23,54.168 Z M305.914,54.14 C306.334,54.14 306.684,53.79 306.684,53.37 C306.684,52.95 306.334,52.6 305.914,52.6 C305.494,52.6 305.144,52.95 305.144,53.37 C305.144,53.79 305.494,54.14 305.914,54.14 L305.914,54.14 Z M309.148,54.14 C309.568,54.14 309.918,53.79 309.918,53.37 C309.918,52.95 309.568,52.6 309.148,52.6 C308.728,52.6 308.378,52.95 308.378,53.37 C308.378,53.79 308.728,54.14 309.148,54.14 L309.148,54.14 Z" id="Du-har-fået-en-ny-va" opacity="0.532241138" fill="#4A4A4A" sketch:type="MSShapeGroup"></path>
            </g>
        </g>
    </g>
</svg>